@startuml
skinparam shadowing false
skinparam classBorderThickness .5
skinparam monochrome true
skinparam defaultFontName "Verdana"
skinparam defaultFontSize 14
skinparam sequence {
   ParticipantBackgroundColor transparent
   ParticipantFontSize 16
   ActorFontSize 16
}

Participant IntegrationTest #WHITE
Participant "Spring\n Application"
Participant "De/Serializer"
Participant "info:AddAccountToGroup\nRequestInfoDTO"
Participant "ctrl:AddAccountTo\nGroupController"
Participant "AddAccountToGroup\nRequestAssembler"
Participant "reqstDTO:AddAccountTo\nGroupRequestDTO"
Participant "AddAccountToGroup\nResponseAssember"
Participant "respDTO:AddAccountTo\nGroupResponseDTO"
Participant "AddAccountToGroupService"

note over "AddAccountToGroupService" #white
   Continues through
    next Diagram
end note

autonumber 1
activate IntegrationTest #white
IntegrationTest->"Spring\n Application":POST:\npersons/tarcisio@family.com/accounts\n("groupDesc":"Family",\n"denom":"Family Account" ,\n"description":"grocery")
activate "Spring\n Application" #white

autonumber 1.2
"Spring\n Application"-> "De/Serializer":deserialize("groupDesc":"Family", \n"email":"ana@gmail.com",\n"denom":"Family Account" ,\n"description":"grocery")
activate "De/Serializer" #white
create "info:AddAccountToGroup\nRequestInfoDTO"

autonumber 1.2.1
"De/Serializer"->"info:AddAccountToGroup\nRequestInfoDTO": create (groupDesc, \nemail, denom, \ndescription)
deactivate "De/Serializer"

autonumber 1.3
 "Spring\n Application" -> "ctrl:AddAccountTo\nGroupController" : addAccountToGroup(info)
activate "ctrl:AddAccountTo\nGroupController" #white

autonumber 1.3.1
"ctrl:AddAccountTo\nGroupController"->"AddAccountToGroup\nRequestAssembler": AddAccountmapToDTO\ninfo.getDenomination(),\ninfo.getDescription(),\ninfo.getGroupDescription(),\ninfo.getResponsibleEmail())
activate  "AddAccountToGroup\nRequestAssembler" #white

autonumber 1.3.1.1
"AddAccountToGroup\nRequestAssembler"-> "reqstDTO:AddAccountTo\nGroupRequestDTO"**:create
"AddAccountToGroup\nRequestAssembler"--> "ctrl:AddAccountTo\nGroupController" : reqstDTO
deactivate "AddAccountToGroup\nRequestAssembler"

autonumber 1.3.2
"ctrl:AddAccountTo\nGroupController"-> "AddAccountToGroupService":addAccount(reqstDTO)
activate "AddAccountToGroupService"#white
"AddAccountToGroupService" -->"ctrl:AddAccountTo\nGroupController":accountDTO
deactivate "AddAccountToGroupService"

"ctrl:AddAccountTo\nGroupController"->"AddAccountToGroup\nResponseAssember":mapToAddAccountResponseDTO(accountDTO)
activate "AddAccountToGroup\nResponseAssember"#white
create "respDTO:AddAccountTo\nGroupResponseDTO"

autonumber 1.3.4.1
"AddAccountToGroup\nResponseAssember" -> "respDTO:AddAccountTo\nGroupResponseDTO" : create
"AddAccountToGroup\nResponseAssember" --> "ctrl:AddAccountTo\nGroupController":respDTO
deactivate "AddAccountToGroup\nResponseAssember"
"ctrl:AddAccountTo\nGroupController"--> "Spring\n Application" : respDTO
deactivate "ctrl:AddAccountTo\nGroupController"

autonumber 1.4
"Spring\n Application" -> "De/Serializer":respDTO
deactivate "AddAccountToGroup\nResponseAssember"
activate "De/Serializer" #white
"De/Serializer" --> "Spring\n Application":HttpResponse
deactivate "De/Serializer"
"Spring\n Application" --> IntegrationTest:HttpResponse
deactivate  "Spring\n Application"
deactivate IntegrationTest #white

@enduml