@startuml
skinparam shadowing false
skinparam classBorderThickness .5
skinparam monochrome true
skinparam defaultFontName "Verdana"
skinparam defaultFontSize 14

autonumber

participant "ctrl:\naddGroupRestController"
participant "srv:\nAddGroupService"
participant "Group\nAssembler"
participant "group\nDTO"
participant "groupRepo:\nGroupRepository"
participant "GroupDomain\nDataAssembler"
participant "g1:\nGroup"
participant "groupData:\nGroupData"
participant "GroupJPA\nRepository"


activate "ctrl:\naddGroupRestController" #white
"ctrl:\naddGroupRestController"->"srv:\nAddGroupService":addGroup\n(addGroupRequestDTO)
activate "srv:\nAddGroupService" #white
autonumber 1.1
"srv:\nAddGroupService"-> "groupRepo:\nGroupRepository": findById(addGroupRequestDTO.getID())
activate "groupRepo:\nGroupRepository"
autonumber 1.1.1
"groupRepo:\nGroupRepository"->"GroupJPA\nRepository":findById(groupID)
deactivate "groupRepo:\nGroupRepository"
autonumber 1.2
create "g1:\nGroup"
"srv:\nAddGroupService" -> "g1:\nGroup": create


deactivate "g1:\nGroup"
autonumber 1.3
"srv:\nAddGroupService"-> "groupRepo:\nGroupRepository":save(g1)
activate "groupRepo:\nGroupRepository" #white
autonumber 1.3.1
"groupRepo:\nGroupRepository" -> "GroupDomain\nDataAssembler": toData(g1)
activate "GroupDomain\nDataAssembler"
create "groupData:\nGroupData"
autonumber 1.3.1.1
"GroupDomain\nDataAssembler" -> "groupData:\nGroupData" :create

"GroupDomain\nDataAssembler" --> "groupRepo:\nGroupRepository" : groupData
deactivate "GroupDomain\nDataAssembler"

autonumber 1.3.2
"groupRepo:\nGroupRepository" -> "GroupDomain\nDataAssembler" : toDomain(savedGroupData)
activate "GroupDomain\nDataAssembler"
"GroupDomain\nDataAssembler"-> "g1:\nGroup": create
"GroupDomain\nDataAssembler" --> "groupRepo:\nGroupRepository" : group
deactivate "GroupDomain\nDataAssembler"

"groupRepo:\nGroupRepository"-->"srv:\nAddGroupService" : group

autonumber 1.4
deactivate "groupRepo:\nGroupRepository"
"srv:\nAddGroupService" -> "Group\nAssembler":mapToDto(group)
activate "Group\nAssembler"#white
autonumber 1.4.1
create "group\nDTO"
"Group\nAssembler"-> "group\nDTO":create
"Group\nAssembler" -->"srv:\nAddGroupService": group\nDTO
deactivate "Group\nAssembler"
autonumber 1.5
"srv:\nAddGroupService"--> "ctrl:\naddGroupRestController":group\nDTO

deactivate "srv:\nAddGroupService"
deactivate "ctrl:\naddGroupRestController"

@enduml