@startuml
skinparam shadowing false
skinparam classBorderThickness .5
skinparam monochrome true
skinparam defaultFontName "Verdana"
skinparam defaultFontSize 14

participant Test #white

activate Test #white
create "ctrl:us010Controller"
Test -> "ctrl:us010Controller" : create
Test -> "ctrl:us010Controller" : ctrl.getAccountTransactionsInPeriod\n(initDate,endDate, g1, p1, acc1)
activate "ctrl:us010Controller" #white
"ctrl:us010Controller" -> "g1:Group" : g1.getAccountTransactionsInPeriod\n(initDate,endDate, g1, p1, acc1)
activate "g1:Group" #white
"g1:Group" -> "ledger:Ledger" : ledger.getAccountTransactionsInPeriod\n(initDate,endDate, g1, p1, acc1)
activate "ledger:Ledger" #white
"ledger:Ledger" -> "g1:Group"  : g1.isMember(p1)
"g1:Group" -> "ledger:Ledger"
create "g1:Group"
create "ledger:Ledger"
deactivate "p1:person"
deactivate "ledger:Ledger"
deactivate "g1:Group"
deactivate "ctrl:us010Controller" #white
create "p1:person" #white
create "acc1:account" #white

@enduml